14#SI#256785#Petrović#Nemanja#Miloš#m#Vuka Karadžića 56, 21000 Novi Sad#0615896478#0612995800214#06-12-1995
10#AR#586145#Milovac#Marko#Petar#m#Bulevar Evrope 26, 21000 Novi Sad#0618963145#2301999256978#23-01-1999
12#ST#698743#Bencun#Mitar#Ana#ž#Žarka Jovića 12, 22000 Kać#0645896785#0310999458796#03-10-1999
11#AT#569785#Jovanović#Petar#Marija#ž#Petra Drapšina 189, 23000 Subotica#06345810256#0203995450025#02-03-1995
16#IR#320159#Marković#Jovan#Uroš#m#Zdravka Čelara 256, 21000 Novi Sad#0615986012#0409992145023#04-09-1999
10#DR#586145#Milovac#Nenad#Nemanja#m#Đorđa Isakova 64, 21000 Novi Sad#06145963145#1501999256978#15-01-1999